…
col_types_undoc = c(
  "text",
  "text",
  "numeric",
  "skip",
  "text",
  "skip"
)

df_pop <- read_excel(filename, skip = 2, col_names = col_names_undoc, col_types = col_types_undoc)
df_pop
```

    ## # A tibble: 3,220 × 4
    ##    id             `Geographic Area Name`   `Estimate!!Total` Margin of Error!!…¹
    ##    <chr>          <chr>                                <dbl> <chr>              
    ##  1 0500000US01001 Autauga County, Alabama              55200 *****              
    ##  2 0500000US01003 Baldwin County, Alabama             208107 *****              
    ##  3 0500000US01005 Barbour County, Alabama              25782 *****              
    ##  4 0500000US01007 Bibb County, Alabama                 22527 *****              
    ##  5 0500000US01009 Blount County, Alabama               57645 *****              
    ##  6 0500000US01011 Bullock County, Alabama              10352 *****              
    ##  7 0500000US01013 Butler County, Alabama               20025 *****              
    ##  8 0500000US01015 Calhoun County, Alabama             115098 *****              
    ##  9 0500000US01017 Chambers County, Alabama             33826 *****              
    ## 10 0500000US01019 Cherokee County, Alabama             25853 *****              
    ## # … with 3,210 more rows, and abbreviated variable name
    ## #   ¹​`Margin of Error!!Total`
…
    ## Rows: 2502832 Columns: 6
    ## ── Column specification ────────────────────────────────────────────────────────
    ## Delimiter: ","
    ## chr  (3): county, state, fips
    ## dbl  (2): cases, deaths
    ## date (1): date
    ## 
    ## ℹ Use `spec()` to retrieve the full column specification for this data.
    ## ℹ Specify the column types or set `show_col_types = FALSE` to quiet this message.

``` r
df_covid
```

    ## # A tibble: 2,502,832 × 6
    ##    date       county      state      fips  cases deaths
    ##    <date>     <chr>       <chr>      <chr> <dbl>  <dbl>
    ##  1 2020-01-21 Snohomish   Washington 53061     1      0
    ##  2 2020-01-22 Snohomish   Washington 53061     1      0
    ##  3 2020-01-23 Snohomish   Washington 53061     1      0
    ##  4 2020-01-24 Cook        Illinois   17031     1      0
    ##  5 2020-01-24 Snohomish   Washington 53061     1      0
    ##  6 2020-01-25 Orange      California 06059     1      0
    ##  7 2020-01-25 Cook        Illinois   17031     1      0
    ##  8 2020-01-25 Snohomish   Washington 53061     1      0
    ##  9 2020-01-26 Maricopa    Arizona    04013     1      0
    ## 10 2020-01-26 Los Angeles California 06037     1      0
    ## # … with 2,502,822 more rows
…
To join these datasets, we’ll need to use [FIPS county
codes](https://en.wikipedia.org/wiki/FIPS_county_code).\[2\] The last
`5` digits of the `id` column in `df_pop` is the FIPS county code, while
the NYT data `df_covid` already contains the `fips`.

### **q3** Process the `id` column of `df_pop` to create a `fips` column.

``` r
## TASK: Create a `fips` column by extracting the county code
df_q3 <- df_pop %>%
  mutate(fips = substr(id, nchar(id) - 4, nchar(id)))
df_q3
```

    ## # A tibble: 3,220 × 5
    ##    id             `Geographic Area Name`   `Estimate!!Total` Margin of E…¹ fips 
    ##    <chr>          <chr>                                <dbl> <chr>         <chr>
    ##  1 0500000US01001 Autauga County, Alabama              55200 *****         01001
    ##  2 0500000US01003 Baldwin County, Alabama             208107 *****         01003
    ##  3 0500000US01005 Barbour County, Alabama              25782 *****         01005
    ##  4 0500000US01007 Bibb County, Alabama                 22527 *****         01007
    ##  5 0500000US01009 Blount County, Alabama               57645 *****         01009
    ##  6 0500000US01011 Bullock County, Alabama              10352 *****         01011
    ##  7 0500000US01013 Butler County, Alabama               20025 *****         01013
    ##  8 0500000US01015 Calhoun County, Alabama             115098 *****         01015
    ##  9 0500000US01017 Chambers County, Alabama             33826 *****         01017
    ## 10 0500000US01019 Cherokee County, Alabama             25853 *****         01019
    ## # … with 3,210 more rows, and abbreviated variable name
    ## #   ¹​`Margin of Error!!Total`
…
    ## [1] "Very good!"

### **q4** Join `df_covid` with `df_q3` by the `fips` column. Use the proper type of join to preserve *only* the rows in `df_covid`.

``` r
## TASK: Join df_covid and df_q3 by fips.
df_q4 <- df_covid %>%
  left_join(df_q3, by = "fips")
df_q4
```

    ## # A tibble: 2,502,832 × 10
    ##    date       county      state fips  cases deaths id    Geogr…¹ Estim…² Margi…³
    ##    <date>     <chr>       <chr> <chr> <dbl>  <dbl> <chr> <chr>     <dbl> <chr>  
    ##  1 2020-01-21 Snohomish   Wash… 53061     1      0 0500… Snohom…  7.87e5 *****  
    ##  2 2020-01-22 Snohomish   Wash… 53061     1      0 0500… Snohom…  7.87e5 *****  
    ##  3 2020-01-23 Snohomish   Wash… 53061     1      0 0500… Snohom…  7.87e5 *****  
    ##  4 2020-01-24 Cook        Illi… 17031     1      0 0500… Cook C…  5.22e6 *****  
    ##  5 2020-01-24 Snohomish   Wash… 53061     1      0 0500… Snohom…  7.87e5 *****  
    ##  6 2020-01-25 Orange      Cali… 06059     1      0 0500… Orange…  3.16e6 *****  
    ##  7 2020-01-25 Cook        Illi… 17031     1      0 0500… Cook C…  5.22e6 *****  
    ##  8 2020-01-25 Snohomish   Wash… 53061     1      0 0500… Snohom…  7.87e5 *****  
    ##  9 2020-01-26 Maricopa    Ariz… 04013     1      0 0500… Marico…  4.25e6 *****  
    ## 10 2020-01-26 Los Angeles Cali… 06037     1      0 0500… Los An…  1.01e7 *****  
    ## # … with 2,502,822 more rows, and abbreviated variable names
    ## #   ¹​`Geographic Area Name`, ²​`Estimate!!Total`, ³​`Margin of Error!!Total`
…
df_data <-
  df_q4 %>%
  select(
    date,
    county,
    state,
    fips,
    cases,
    deaths,
    population = `Estimate!!Total`
  )
df_data
```

    ## # A tibble: 2,502,832 × 7
    ##    date       county      state      fips  cases deaths population
    ##    <date>     <chr>       <chr>      <chr> <dbl>  <dbl>      <dbl>
    ##  1 2020-01-21 Snohomish   Washington 53061     1      0     786620
    ##  2 2020-01-22 Snohomish   Washington 53061     1      0     786620
    ##  3 2020-01-23 Snohomish   Washington 53061     1      0     786620
    ##  4 2020-01-24 Cook        Illinois   17031     1      0    5223719
    ##  5 2020-01-24 Snohomish   Washington 53061     1      0     786620
    ##  6 2020-01-25 Orange      California 06059     1      0    3164182
    ##  7 2020-01-25 Cook        Illinois   17031     1      0    5223719
    ##  8 2020-01-25 Snohomish   Washington 53061     1      0     786620
    ##  9 2020-01-26 Maricopa    Arizona    04013     1      0    4253913
    ## 10 2020-01-26 Los Angeles California 06037     1      0   10098052
    ## # … with 2,502,822 more rows
…
## Normalize

<!-- ------------------------- -->

### **q5** Use the `population` estimates in `df_data` to normalize `cases` and `deaths` to produce per 100,000 counts \[3\]. Store these values in the columns `cases_per100k` and `deaths_per100k`.

``` r
## TASK: Normalize cases and deaths
df_normalized <-
  df_data %>%
    mutate(cases_per100k = (cases/population)*100000, deaths_per100k = (deaths/population) * 100000)
df_normalized
```

    ## # A tibble: 2,502,832 × 9
    ##    date       county      state      fips  cases deaths popula…¹ cases…² death…³
    ##    <date>     <chr>       <chr>      <chr> <dbl>  <dbl>    <dbl>   <dbl>   <dbl>
    ##  1 2020-01-21 Snohomish   Washington 53061     1      0   786620 0.127         0
    ##  2 2020-01-22 Snohomish   Washington 53061     1      0   786620 0.127         0
    ##  3 2020-01-23 Snohomish   Washington 53061     1      0   786620 0.127         0
    ##  4 2020-01-24 Cook        Illinois   17031     1      0  5223719 0.0191        0
    ##  5 2020-01-24 Snohomish   Washington 53061     1      0   786620 0.127         0
    ##  6 2020-01-25 Orange      California 06059     1      0  3164182 0.0316        0
    ##  7 2020-01-25 Cook        Illinois   17031     1      0  5223719 0.0191        0
    ##  8 2020-01-25 Snohomish   Washington 53061     1      0   786620 0.127         0
    ##  9 2020-01-26 Maricopa    Arizona    04013     1      0  4253913 0.0235        0
    ## 10 2020-01-26 Los Angeles California 06037     1      0 10098052 0.00990       0
    ## # … with 2,502,822 more rows, and abbreviated variable names ¹​population,
    ## #   ²​cases_per100k, ³​deaths_per100k
…
