…
    ## Rows: 3220 Columns: 7
    ## ── Column specification ────────────────────────────────────────────────────────
    ## Delimiter: ","
    ## chr (5): id, geographic_area_name, population_moe, X5, X6
    ## dbl (1): population_estimate
    ## lgl (1): X7
    ## 
    ## ℹ Use `spec()` to retrieve the full column specification for this data.
    ## ℹ Specify the column types or set `show_col_types = FALSE` to quiet this message.

``` r
df_pop
```

    ## # A tibble: 3,220 × 7
    ##    id             geographic_area_name     populatio…¹ popul…² X5    X6    X7   
    ##    <chr>          <chr>                          <dbl> <chr>   <chr> <chr> <lgl>
    ##  1 0500000US01001 Autauga County, Alabama        55200 null    ***** ***** NA   
    ##  2 0500000US01003 Baldwin County, Alabama       208107 null    ***** ***** NA   
    ##  3 0500000US01005 Barbour County, Alabama        25782 null    ***** ***** NA   
    ##  4 0500000US01007 Bibb County, Alabama           22527 null    ***** ***** NA   
    ##  5 0500000US01009 Blount County, Alabama         57645 null    ***** ***** NA   
    ##  6 0500000US01011 Bullock County, Alabama        10352 null    ***** ***** NA   
    ##  7 0500000US01013 Butler County, Alabama         20025 null    ***** ***** NA   
    ##  8 0500000US01015 Calhoun County, Alabama       115098 null    ***** ***** NA   
    ##  9 0500000US01017 Chambers County, Alabama       33826 null    ***** ***** NA   
    ## 10 0500000US01019 Cherokee County, Alabama       25853 null    ***** ***** NA   
    ## # … with 3,210 more rows, and abbreviated variable names ¹​population_estimate,
    ## #   ²​population_moe
…
    ## Rows: 3220 Columns: 483
    ## ── Column specification ────────────────────────────────────────────────────────
    ## Delimiter: ","
    ## chr (306): Geography, Geographic Area Name, Annotation of Margin of Error!!N...
    ## dbl (176): Estimate!!Number!!HOUSEHOLD INCOME BY RACE AND HISPANIC OR LATINO...
    ## lgl   (1): ...483
    ## 
    ## ℹ Use `spec()` to retrieve the full column specification for this data.
    ## ℹ Specify the column types or set `show_col_types = FALSE` to quiet this message.

``` r
df_income
```

    ## # A tibble: 3,220 × 483
    ##    Geography     Geogr…¹ Estim…² Margi…³ Annot…⁴ Annot…⁵ Estim…⁶ Margi…⁷ Annot…⁸
    ##    <chr>         <chr>     <dbl>   <dbl> <chr>   <chr>     <dbl>   <dbl> <chr>  
    ##  1 0500000US010… Autaug…   21115     383 null    null      16585     363 null   
    ##  2 0500000US010… Baldwi…   78622    1183 null    null      69544    1042 null   
    ##  3 0500000US010… Barbou…    9186     280 null    null       4729     211 null   
    ##  4 0500000US010… Bibb C…    6840     321 null    null       5588     346 null   
    ##  5 0500000US010… Blount…   20600     396 null    null      20054     417 null   
    ##  6 0500000US010… Bulloc…    3609     196 null    null        881     119 null   
    ##  7 0500000US010… Butler…    6708     274 null    null       3821     173 null   
    ##  8 0500000US010… Calhou…   45033     683 null    null      33820     559 null   
    ##  9 0500000US010… Chambe…   13516     372 null    null       7953     296 null   
    ## 10 0500000US010… Cherok…   10606     370 null    null       9953     356 null   
    ## # … with 3,210 more rows, 474 more variables:
    ## #   `Annotation of Estimate!!Number!!HOUSEHOLD INCOME BY RACE AND HISPANIC OR LATINO ORIGIN OF HOUSEHOLDER!!Households!!One race--!!White` <chr>,
    ## #   `Estimate!!Number!!HOUSEHOLD INCOME BY RACE AND HISPANIC OR LATINO ORIGIN OF HOUSEHOLDER!!Households!!One race--!!Black or African American` <dbl>,
    ## #   `Annotation of Estimate!!Number!!HOUSEHOLD INCOME BY RACE AND HISPANIC OR LATINO ORIGIN OF HOUSEHOLDER!!Households!!One race--!!Black or African American` <chr>,
    ## #   `Margin of Error!!Number MOE!!HOUSEHOLD INCOME BY RACE AND HISPANIC OR LATINO ORIGIN OF HOUSEHOLDER!!Households!!One race--!!Black or African American` <dbl>,
    ## #   `Annotation of Margin of Error!!Number MOE!!HOUSEHOLD INCOME BY RACE AND HISPANIC OR LATINO ORIGIN OF HOUSEHOLDER!!Households!!One race--!!Black or African American` <chr>,
    ## #   `Estimate!!Number!!HOUSEHOLD INCOME BY RACE AND HISPANIC OR LATINO ORIGIN OF HOUSEHOLDER!!Households!!One race--!!American Indian and Alaska Native` <dbl>, …
…
One last wrangling step: We need to join the two datasets so we can
compare population with income.

### **q5** Join `df_q4` and `df_pop`.

``` r
## TODO: Join df_q4 and df_pop by the appropriate column

df_data <- df_q4 %>% full_join(df_pop, by = "id") %>%
  rename("geographic_area_name" = "geographic_area_name.x")
df_data
```

    ## # A tibble: 15,287 × 15
    ##    id    geogr…¹ categ…² incom…³ incom…⁴ incom…⁵ incom…⁶ incom…⁷ incom…⁸ geogr…⁹
    ##    <chr> <chr>   <chr>     <dbl>   <dbl>   <dbl>   <dbl>   <dbl>   <dbl> <chr>  
    ##  1 0500… Autaug… 2-pers…   64947    6663   4050.  0.0624  54514.  75380. Autaug…
    ##  2 0500… Autaug… 3-pers…   80172   14181   8621.  0.108   57967. 102377. Autaug…
    ##  3 0500… Autaug… 4-pers…   85455   10692   6500.  0.0761  68713. 102197. Autaug…
    ##  4 0500… Autaug… 5-pers…   88601   20739  12607.  0.142   56127. 121075. Autaug…
    ##  5 0500… Autaug… 6-pers…  103787   12387   7530.  0.0726  84391. 123183. Autaug…
    ##  6 0500… Baldwi… 2-pers…   63975    2297   1396.  0.0218  60378.  67572. Baldwi…
    ##  7 0500… Baldwi… 3-pers…   79390    8851   5381.  0.0678  65531.  93249. Baldwi…
    ##  8 0500… Baldwi… 4-pers…   88458    5199   3160.  0.0357  80317.  96599. Baldwi…
    ##  9 0500… Baldwi… 5-pers…   91259    7011   4262.  0.0467  80281. 102237. Baldwi…
    ## 10 0500… Baldwi… 6-pers…   69609   23175  14088.  0.202   33320. 105898. Baldwi…
    ## # … with 15,277 more rows, 5 more variables: population_estimate <dbl>,
    ## #   population_moe <chr>, X5 <chr>, X6 <chr>, X7 <lgl>, and abbreviated
    ## #   variable names ¹​geographic_area_name, ²​category, ³​income_estimate,
    ## #   ⁴​income_moe, ⁵​income_SE, ⁶​income_CV, ⁷​income_lo, ⁸​income_hi,
    ## #   ⁹​geographic_area_name.y
…
